%YAML 1.1
%TAG !u! tag:unity3d.com,2011:
--- !u!114 &11400000
MonoBehaviour:
  m_ObjectHideFlags: 0
  m_CorrespondingSourceObject: {fileID: 0}
  m_PrefabInstance: {fileID: 0}
  m_PrefabAsset: {fileID: 0}
  m_GameObject: {fileID: 0}
  m_Enabled: 1
  m_EditorHideFlags: 0
  m_Script: {fileID: 11500000, guid: b9829143ba215ab4e99aca102e0fabdf, type: 3}
  m_Name: S Medium Enemy Wave
  m_EditorClassIdentifier: 
  enemyPrefab: {fileID: 8419259811679523346, guid: eef009f7b7fdf7942b887ab24ded56a3,
    type: 3}
  numberOfEnemies: 5
  enemySpawnRate: 2.2
  enemyMovementSpeed: 3.75
  pathPrefab: {fileID: 7032481785463312134, guid: 14ef64ab4894cae4cb8ea9d29bc99cd0,
    type: 3}
  pathPosition: {x: 0, y: 0, z: 0}
  pathRotation: {x: 0, y: 0, z: 0, w: 0}
  isMirrored: 0
