%YAML 1.1
%TAG !u! tag:unity3d.com,2011:
--- !u!114 &11400000
MonoBehaviour:
  m_ObjectHideFlags: 0
  m_CorrespondingSourceObject: {fileID: 0}
  m_PrefabInstance: {fileID: 0}
  m_PrefabAsset: {fileID: 0}
  m_GameObject: {fileID: 0}
  m_Enabled: 1
  m_EditorHideFlags: 0
  m_Script: {fileID: 11500000, guid: 27a1bc51a63b0e84b8389233d23a7d47, type: 3}
  m_Name: Music Database
  m_EditorClassIdentifier: 
  levelMusic:
    m_keys: 000000000100000002000000030000000400000005000000060000000700000008000000090000000a0000000b0000000c000000
    m_values:
    - {fileID: 8300000, guid: aa8fbb3c28da1da4aad22db1c19a73b8, type: 3}
    - {fileID: 8300000, guid: f04c549d8f9195d47ad22d75e2e3eaf9, type: 3}
    - {fileID: 8300000, guid: 965ad14a7ab11284eba9c363916cceb1, type: 3}
    - {fileID: 8300000, guid: abceebefe69a5f34ea4c3e2dfb4e1c95, type: 3}
    - {fileID: 8300000, guid: 4db993ccf0e52654fbbf946a0e6662d1, type: 3}
    - {fileID: 8300000, guid: f388f0759c726814886516697385db53, type: 3}
    - {fileID: 8300000, guid: f04c549d8f9195d47ad22d75e2e3eaf9, type: 3}
    - {fileID: 8300000, guid: 965ad14a7ab11284eba9c363916cceb1, type: 3}
    - {fileID: 8300000, guid: abceebefe69a5f34ea4c3e2dfb4e1c95, type: 3}
    - {fileID: 8300000, guid: 4db993ccf0e52654fbbf946a0e6662d1, type: 3}
    - {fileID: 8300000, guid: f388f0759c726814886516697385db53, type: 3}
    - {fileID: 8300000, guid: aa8fbb3c28da1da4aad22db1c19a73b8, type: 3}
    - {fileID: 8300000, guid: 809ef5cddfff87e48b5d341881f1534c, type: 3}
  clipToLoop:
    m_keys:
    - {fileID: 8300000, guid: aa8fbb3c28da1da4aad22db1c19a73b8, type: 3}
    - {fileID: 8300000, guid: f04c549d8f9195d47ad22d75e2e3eaf9, type: 3}
    - {fileID: 8300000, guid: f388f0759c726814886516697385db53, type: 3}
    - {fileID: 8300000, guid: 4db993ccf0e52654fbbf946a0e6662d1, type: 3}
    - {fileID: 8300000, guid: 965ad14a7ab11284eba9c363916cceb1, type: 3}
    - {fileID: 8300000, guid: abceebefe69a5f34ea4c3e2dfb4e1c95, type: 3}
    - {fileID: 8300000, guid: 809ef5cddfff87e48b5d341881f1534c, type: 3}
    - {fileID: 8300000, guid: 7485686cc93b7ed4cb1393b125236476, type: 3}
    m_values: 0101010101010000
