%YAML 1.1
%TAG !u! tag:unity3d.com,2011:
--- !u!114 &11400000
MonoBehaviour:
  m_ObjectHideFlags: 0
  m_CorrespondingSourceObject: {fileID: 0}
  m_PrefabInstance: {fileID: 0}
  m_PrefabAsset: {fileID: 0}
  m_GameObject: {fileID: 0}
  m_Enabled: 1
  m_EditorHideFlags: 0
  m_Script: {fileID: 11500000, guid: a07641866615e7741ab55211a844e5b1, type: 3}
  m_Name: North Tracker Config Object
  m_EditorClassIdentifier: 
  enemyPrefab: {fileID: 5434631466838850534, guid: 9eded27c9b4cfba419ce0d6737016b28,
    type: 3}
  numberOfEnemies: 3
  enemySpawnRate: 0.2
  enemyMovementSpeed: 2
  spawnPoint: {x: 0, y: 8}
