%YAML 1.1
%TAG !u! tag:unity3d.com,2011:
--- !u!29 &1
OcclusionCullingSettings:
  m_ObjectHideFlags: 0
  serializedVersion: 2
  m_OcclusionBakeSettings:
    smallestOccluder: 5
    smallestHole: 0.25
    backfaceThreshold: 100
  m_SceneGUID: 00000000000000000000000000000000
  m_OcclusionCullingData: {fileID: 0}
--- !u!104 &2
RenderSettings:
  m_ObjectHideFlags: 0
  serializedVersion: 9
  m_Fog: 0
  m_FogColor: {r: 0.5, g: 0.5, b: 0.5, a: 1}
  m_FogMode: 3
  m_FogDensity: 0.01
  m_LinearFogStart: 0
  m_LinearFogEnd: 300
  m_AmbientSkyColor: {r: 0.212, g: 0.227, b: 0.259, a: 1}
  m_AmbientEquatorColor: {r: 0.114, g: 0.125, b: 0.133, a: 1}
  m_AmbientGroundColor: {r: 0.047, g: 0.043, b: 0.035, a: 1}
  m_AmbientIntensity: 1
  m_AmbientMode: 3
  m_SubtractiveShadowColor: {r: 0.42, g: 0.478, b: 0.627, a: 1}
  m_SkyboxMaterial: {fileID: 0}
  m_HaloStrength: 0.5
  m_FlareStrength: 1
  m_FlareFadeSpeed: 3
  m_HaloTexture: {fileID: 0}
  m_SpotCookie: {fileID: 10001, guid: 0000000000000000e000000000000000, type: 0}
  m_DefaultReflectionMode: 0
  m_DefaultReflectionResolution: 128
  m_ReflectionBounces: 1
  m_ReflectionIntensity: 1
  m_CustomReflection: {fileID: 0}
  m_Sun: {fileID: 0}
  m_IndirectSpecularColor: {r: 0, g: 0, b: 0, a: 1}
  m_UseRadianceAmbientProbe: 0
--- !u!157 &3
LightmapSettings:
  m_ObjectHideFlags: 0
  serializedVersion: 12
  m_GIWorkflowMode: 1
  m_GISettings:
    serializedVersion: 2
    m_BounceScale: 1
    m_IndirectOutputScale: 1
    m_AlbedoBoost: 1
    m_EnvironmentLightingMode: 0
    m_EnableBakedLightmaps: 0
    m_EnableRealtimeLightmaps: 0
  m_LightmapEditorSettings:
    serializedVersion: 12
    m_Resolution: 2
    m_BakeResolution: 40
    m_AtlasSize: 1024
    m_AO: 0
    m_AOMaxDistance: 1
    m_CompAOExponent: 1
    m_CompAOExponentDirect: 0
    m_ExtractAmbientOcclusion: 0
    m_Padding: 2
    m_LightmapParameters: {fileID: 0}
    m_LightmapsBakeMode: 1
    m_TextureCompression: 1
    m_FinalGather: 0
    m_FinalGatherFiltering: 1
    m_FinalGatherRayCount: 256
    m_ReflectionCompression: 2
    m_MixedBakeMode: 2
    m_BakeBackend: 0
    m_PVRSampling: 1
    m_PVRDirectSampleCount: 32
    m_PVRSampleCount: 500
    m_PVRBounces: 2
    m_PVREnvironmentSampleCount: 500
    m_PVREnvironmentReferencePointCount: 2048
    m_PVRFilteringMode: 2
    m_PVRDenoiserTypeDirect: 0
    m_PVRDenoiserTypeIndirect: 0
    m_PVRDenoiserTypeAO: 0
    m_PVRFilterTypeDirect: 0
    m_PVRFilterTypeIndirect: 0
    m_PVRFilterTypeAO: 0
    m_PVREnvironmentMIS: 0
    m_PVRCulling: 1
    m_PVRFilteringGaussRadiusDirect: 1
    m_PVRFilteringGaussRadiusIndirect: 5
    m_PVRFilteringGaussRadiusAO: 2
    m_PVRFilteringAtrousPositionSigmaDirect: 0.5
    m_PVRFilteringAtrousPositionSigmaIndirect: 2
    m_PVRFilteringAtrousPositionSigmaAO: 1
    m_ExportTrainingData: 0
    m_TrainingDataDestination: TrainingData
    m_LightProbeSampleCountMultiplier: 4
  m_LightingDataAsset: {fileID: 0}
  m_LightingSettings: {fileID: 287929236}
--- !u!196 &4
NavMeshSettings:
  serializedVersion: 2
  m_ObjectHideFlags: 0
  m_BuildSettings:
    serializedVersion: 2
    agentTypeID: 0
    agentRadius: 0.5
    agentHeight: 2
    agentSlope: 45
    agentClimb: 0.4
    ledgeDropHeight: 0
    maxJumpAcrossDistance: 0
    minRegionArea: 2
    manualCellSize: 0
    cellSize: 0.16666667
    manualTileSize: 0
    tileSize: 256
    accuratePlacement: 0
    maxJobWorkers: 0
    preserveTilesOutsideBounds: 0
    debug:
      m_Flags: 0
  m_NavMeshData: {fileID: 0}
--- !u!1001 &239496680
PrefabInstance:
  m_ObjectHideFlags: 0
  serializedVersion: 2
  m_Modification:
    m_TransformParent: {fileID: 0}
    m_Modifications:
    - target: {fileID: 6540333466678503285, guid: b019abcdf8d2931428b3c4c611f8b28d,
        type: 3}
      propertyPath: m_Name
      value: SoundFX Manager
      objectReference: {fileID: 0}
    - target: {fileID: 6540333466678503286, guid: b019abcdf8d2931428b3c4c611f8b28d,
        type: 3}
      propertyPath: m_RootOrder
      value: 17
      objectReference: {fileID: 0}
    - target: {fileID: 6540333466678503286, guid: b019abcdf8d2931428b3c4c611f8b28d,
        type: 3}
      propertyPath: m_LocalPosition.x
      value: 0
      objectReference: {fileID: 0}
    - target: {fileID: 6540333466678503286, guid: b019abcdf8d2931428b3c4c611f8b28d,
        type: 3}
      propertyPath: m_LocalPosition.y
      value: 0
      objectReference: {fileID: 0}
    - target: {fileID: 6540333466678503286, guid: b019abcdf8d2931428b3c4c611f8b28d,
        type: 3}
      propertyPath: m_LocalPosition.z
      value: 0
      objectReference: {fileID: 0}
    - target: {fileID: 6540333466678503286, guid: b019abcdf8d2931428b3c4c611f8b28d,
        type: 3}
      propertyPath: m_LocalRotation.w
      value: 1
      objectReference: {fileID: 0}
    - target: {fileID: 6540333466678503286, guid: b019abcdf8d2931428b3c4c611f8b28d,
        type: 3}
      propertyPath: m_LocalRotation.x
      value: 0
      objectReference: {fileID: 0}
    - target: {fileID: 6540333466678503286, guid: b019abcdf8d2931428b3c4c611f8b28d,
        type: 3}
      propertyPath: m_LocalRotation.y
      value: 0
      objectReference: {fileID: 0}
    - target: {fileID: 6540333466678503286, guid: b019abcdf8d2931428b3c4c611f8b28d,
        type: 3}
      propertyPath: m_LocalRotation.z
      value: 0
      objectReference: {fileID: 0}
    - target: {fileID: 6540333466678503286, guid: b019abcdf8d2931428b3c4c611f8b28d,
        type: 3}
      propertyPath: m_LocalEulerAnglesHint.x
      value: 0
      objectReference: {fileID: 0}
    - target: {fileID: 6540333466678503286, guid: b019abcdf8d2931428b3c4c611f8b28d,
        type: 3}
      propertyPath: m_LocalEulerAnglesHint.y
      value: 0
      objectReference: {fileID: 0}
    - target: {fileID: 6540333466678503286, guid: b019abcdf8d2931428b3c4c611f8b28d,
        type: 3}
      propertyPath: m_LocalEulerAnglesHint.z
      value: 0
      objectReference: {fileID: 0}
    m_RemovedComponents: []
  m_SourcePrefab: {fileID: 100100000, guid: b019abcdf8d2931428b3c4c611f8b28d, type: 3}
--- !u!1001 &263769756
PrefabInstance:
  m_ObjectHideFlags: 0
  serializedVersion: 2
  m_Modification:
    m_TransformParent: {fileID: 0}
    m_Modifications:
    - target: {fileID: 2785300932201178978, guid: c501474243868774cbc4ca0a53912b9a,
        type: 3}
      propertyPath: m_Name
      value: Shredder
      objectReference: {fileID: 0}
    - target: {fileID: 2785300932201178981, guid: c501474243868774cbc4ca0a53912b9a,
        type: 3}
      propertyPath: m_RootOrder
      value: 5
      objectReference: {fileID: 0}
    - target: {fileID: 2785300932201178981, guid: c501474243868774cbc4ca0a53912b9a,
        type: 3}
      propertyPath: m_LocalPosition.x
      value: 0
      objectReference: {fileID: 0}
    - target: {fileID: 2785300932201178981, guid: c501474243868774cbc4ca0a53912b9a,
        type: 3}
      propertyPath: m_LocalPosition.y
      value: 0
      objectReference: {fileID: 0}
    - target: {fileID: 2785300932201178981, guid: c501474243868774cbc4ca0a53912b9a,
        type: 3}
      propertyPath: m_LocalPosition.z
      value: 0
      objectReference: {fileID: 0}
    - target: {fileID: 2785300932201178981, guid: c501474243868774cbc4ca0a53912b9a,
        type: 3}
      propertyPath: m_LocalRotation.w
      value: 1
      objectReference: {fileID: 0}
    - target: {fileID: 2785300932201178981, guid: c501474243868774cbc4ca0a53912b9a,
        type: 3}
      propertyPath: m_LocalRotation.x
      value: 0
      objectReference: {fileID: 0}
    - target: {fileID: 2785300932201178981, guid: c501474243868774cbc4ca0a53912b9a,
        type: 3}
      propertyPath: m_LocalRotation.y
      value: 0
      objectReference: {fileID: 0}
    - target: {fileID: 2785300932201178981, guid: c501474243868774cbc4ca0a53912b9a,
        type: 3}
      propertyPath: m_LocalRotation.z
      value: 0
      objectReference: {fileID: 0}
    - target: {fileID: 2785300932201178981, guid: c501474243868774cbc4ca0a53912b9a,
        type: 3}
      propertyPath: m_LocalEulerAnglesHint.x
      value: 0
      objectReference: {fileID: 0}
    - target: {fileID: 2785300932201178981, guid: c501474243868774cbc4ca0a53912b9a,
        type: 3}
      propertyPath: m_LocalEulerAnglesHint.y
      value: 0
      objectReference: {fileID: 0}
    - target: {fileID: 2785300932201178981, guid: c501474243868774cbc4ca0a53912b9a,
        type: 3}
      propertyPath: m_LocalEulerAnglesHint.z
      value: 0
      objectReference: {fileID: 0}
    m_RemovedComponents: []
  m_SourcePrefab: {fileID: 100100000, guid: c501474243868774cbc4ca0a53912b9a, type: 3}
--- !u!850595691 &287929236
LightingSettings:
  m_ObjectHideFlags: 0
  m_CorrespondingSourceObject: {fileID: 0}
  m_PrefabInstance: {fileID: 0}
  m_PrefabAsset: {fileID: 0}
  m_Name: Settings.lighting
  serializedVersion: 3
  m_GIWorkflowMode: 1
  m_EnableBakedLightmaps: 0
  m_EnableRealtimeLightmaps: 0
  m_RealtimeEnvironmentLighting: 1
  m_BounceScale: 1
  m_AlbedoBoost: 1
  m_IndirectOutputScale: 1
  m_UsingShadowmask: 1
  m_BakeBackend: 0
  m_LightmapMaxSize: 1024
  m_BakeResolution: 40
  m_Padding: 2
  m_TextureCompression: 1
  m_AO: 0
  m_AOMaxDistance: 1
  m_CompAOExponent: 1
  m_CompAOExponentDirect: 0
  m_ExtractAO: 0
  m_MixedBakeMode: 2
  m_LightmapsBakeMode: 1
  m_FilterMode: 1
  m_LightmapParameters: {fileID: 15204, guid: 0000000000000000f000000000000000, type: 0}
  m_ExportTrainingData: 0
  m_TrainingDataDestination: TrainingData
  m_RealtimeResolution: 2
  m_ForceWhiteAlbedo: 0
  m_ForceUpdates: 0
  m_FinalGather: 0
  m_FinalGatherRayCount: 256
  m_FinalGatherFiltering: 1
  m_PVRCulling: 1
  m_PVRSampling: 1
  m_PVRDirectSampleCount: 32
  m_PVRSampleCount: 500
  m_PVREnvironmentSampleCount: 500
  m_PVREnvironmentReferencePointCount: 2048
  m_LightProbeSampleCountMultiplier: 4
  m_PVRBounces: 2
  m_PVRMinBounces: 1
  m_PVREnvironmentMIS: 0
  m_PVRFilteringMode: 2
  m_PVRDenoiserTypeDirect: 0
  m_PVRDenoiserTypeIndirect: 0
  m_PVRDenoiserTypeAO: 0
  m_PVRFilterTypeDirect: 0
  m_PVRFilterTypeIndirect: 0
  m_PVRFilterTypeAO: 0
  m_PVRFilteringGaussRadiusDirect: 1
  m_PVRFilteringGaussRadiusIndirect: 5
  m_PVRFilteringGaussRadiusAO: 2
  m_PVRFilteringAtrousPositionSigmaDirect: 0.5
  m_PVRFilteringAtrousPositionSigmaIndirect: 2
  m_PVRFilteringAtrousPositionSigmaAO: 1
--- !u!1 &554747443
GameObject:
  m_ObjectHideFlags: 0
  m_CorrespondingSourceObject: {fileID: 0}
  m_PrefabInstance: {fileID: 0}
  m_PrefabAsset: {fileID: 0}
  serializedVersion: 6
  m_Component:
  - component: {fileID: 554747444}
  m_Layer: 0
  m_Name: ===Managers===
  m_TagString: Untagged
  m_Icon: {fileID: 0}
  m_NavMeshLayer: 0
  m_StaticEditorFlags: 0
  m_IsActive: 1
--- !u!4 &554747444
Transform:
  m_ObjectHideFlags: 0
  m_CorrespondingSourceObject: {fileID: 0}
  m_PrefabInstance: {fileID: 0}
  m_PrefabAsset: {fileID: 0}
  m_GameObject: {fileID: 554747443}
  m_LocalRotation: {x: 0, y: 0, z: 0, w: 1}
  m_LocalPosition: {x: 0, y: 0, z: 0}
  m_LocalScale: {x: 1, y: 1, z: 1}
  m_Children: []
  m_Father: {fileID: 0}
  m_RootOrder: 11
  m_LocalEulerAnglesHint: {x: 0, y: 0, z: 0}
--- !u!1001 &572328242
PrefabInstance:
  m_ObjectHideFlags: 0
  serializedVersion: 2
  m_Modification:
    m_TransformParent: {fileID: 0}
    m_Modifications:
    - target: {fileID: 7745746903031029180, guid: d87436415156a834d992f8567e59b83d,
        type: 3}
      propertyPath: m_Name
      value: PowerUp Factory
      objectReference: {fileID: 0}
    - target: {fileID: 7745746903031029181, guid: d87436415156a834d992f8567e59b83d,
        type: 3}
      propertyPath: extraLifePrefab
      value: 
      objectReference: {fileID: 3226436545442818706, guid: 758104dc7723e744b80f2e96f5f841ae,
        type: 3}
    - target: {fileID: 7745746903031029182, guid: d87436415156a834d992f8567e59b83d,
        type: 3}
      propertyPath: m_RootOrder
      value: 19
      objectReference: {fileID: 0}
    - target: {fileID: 7745746903031029182, guid: d87436415156a834d992f8567e59b83d,
        type: 3}
      propertyPath: m_LocalPosition.x
      value: 0
      objectReference: {fileID: 0}
    - target: {fileID: 7745746903031029182, guid: d87436415156a834d992f8567e59b83d,
        type: 3}
      propertyPath: m_LocalPosition.y
      value: 0
      objectReference: {fileID: 0}
    - target: {fileID: 7745746903031029182, guid: d87436415156a834d992f8567e59b83d,
        type: 3}
      propertyPath: m_LocalPosition.z
      value: 0
      objectReference: {fileID: 0}
    - target: {fileID: 7745746903031029182, guid: d87436415156a834d992f8567e59b83d,
        type: 3}
      propertyPath: m_LocalRotation.w
      value: 1
      objectReference: {fileID: 0}
    - target: {fileID: 7745746903031029182, guid: d87436415156a834d992f8567e59b83d,
        type: 3}
      propertyPath: m_LocalRotation.x
      value: 0
      objectReference: {fileID: 0}
    - target: {fileID: 7745746903031029182, guid: d87436415156a834d992f8567e59b83d,
        type: 3}
      propertyPath: m_LocalRotation.y
      value: 0
      objectReference: {fileID: 0}
    - target: {fileID: 7745746903031029182, guid: d87436415156a834d992f8567e59b83d,
        type: 3}
      propertyPath: m_LocalRotation.z
      value: 0
      objectReference: {fileID: 0}
    - target: {fileID: 7745746903031029182, guid: d87436415156a834d992f8567e59b83d,
        type: 3}
      propertyPath: m_LocalEulerAnglesHint.x
      value: 0
      objectReference: {fileID: 0}
    - target: {fileID: 7745746903031029182, guid: d87436415156a834d992f8567e59b83d,
        type: 3}
      propertyPath: m_LocalEulerAnglesHint.y
      value: 0
      objectReference: {fileID: 0}
    - target: {fileID: 7745746903031029182, guid: d87436415156a834d992f8567e59b83d,
        type: 3}
      propertyPath: m_LocalEulerAnglesHint.z
      value: 0
      objectReference: {fileID: 0}
    m_RemovedComponents: []
  m_SourcePrefab: {fileID: 100100000, guid: d87436415156a834d992f8567e59b83d, type: 3}
--- !u!1001 &581346460
PrefabInstance:
  m_ObjectHideFlags: 0
  serializedVersion: 2
  m_Modification:
    m_TransformParent: {fileID: 0}
    m_Modifications:
    - target: {fileID: 7190312252950256910, guid: ab889c7742a939e48bfbf284ed2231cd,
        type: 3}
      propertyPath: m_RootOrder
      value: 14
      objectReference: {fileID: 0}
    - target: {fileID: 7190312252950256910, guid: ab889c7742a939e48bfbf284ed2231cd,
        type: 3}
      propertyPath: m_LocalPosition.x
      value: 0
      objectReference: {fileID: 0}
    - target: {fileID: 7190312252950256910, guid: ab889c7742a939e48bfbf284ed2231cd,
        type: 3}
      propertyPath: m_LocalPosition.y
      value: 0
      objectReference: {fileID: 0}
    - target: {fileID: 7190312252950256910, guid: ab889c7742a939e48bfbf284ed2231cd,
        type: 3}
      propertyPath: m_LocalPosition.z
      value: 0
      objectReference: {fileID: 0}
    - target: {fileID: 7190312252950256910, guid: ab889c7742a939e48bfbf284ed2231cd,
        type: 3}
      propertyPath: m_LocalRotation.w
      value: 1
      objectReference: {fileID: 0}
    - target: {fileID: 7190312252950256910, guid: ab889c7742a939e48bfbf284ed2231cd,
        type: 3}
      propertyPath: m_LocalRotation.x
      value: -0
      objectReference: {fileID: 0}
    - target: {fileID: 7190312252950256910, guid: ab889c7742a939e48bfbf284ed2231cd,
        type: 3}
      propertyPath: m_LocalRotation.y
      value: -0
      objectReference: {fileID: 0}
    - target: {fileID: 7190312252950256910, guid: ab889c7742a939e48bfbf284ed2231cd,
        type: 3}
      propertyPath: m_LocalRotation.z
      value: -0
      objectReference: {fileID: 0}
    - target: {fileID: 7190312252950256910, guid: ab889c7742a939e48bfbf284ed2231cd,
        type: 3}
      propertyPath: m_LocalEulerAnglesHint.x
      value: 0
      objectReference: {fileID: 0}
    - target: {fileID: 7190312252950256910, guid: ab889c7742a939e48bfbf284ed2231cd,
        type: 3}
      propertyPath: m_LocalEulerAnglesHint.y
      value: 0
      objectReference: {fileID: 0}
    - target: {fileID: 7190312252950256910, guid: ab889c7742a939e48bfbf284ed2231cd,
        type: 3}
      propertyPath: m_LocalEulerAnglesHint.z
      value: 0
      objectReference: {fileID: 0}
    - target: {fileID: 7190312252950256911, guid: ab889c7742a939e48bfbf284ed2231cd,
        type: 3}
      propertyPath: loadDelay
      value: 2.11
      objectReference: {fileID: 0}
    - target: {fileID: 7190312252950256912, guid: ab889c7742a939e48bfbf284ed2231cd,
        type: 3}
      propertyPath: m_Name
      value: Level Manager
      objectReference: {fileID: 0}
    m_RemovedComponents: []
  m_SourcePrefab: {fileID: 100100000, guid: ab889c7742a939e48bfbf284ed2231cd, type: 3}
--- !u!114 &1220384107 stripped
MonoBehaviour:
  m_CorrespondingSourceObject: {fileID: 3495797604590463836, guid: fb1cc5ddb6b94084d8e8e62a1f6820ca,
    type: 3}
  m_PrefabInstance: {fileID: 3495797603394338359}
  m_PrefabAsset: {fileID: 0}
  m_GameObject: {fileID: 0}
  m_Enabled: 1
  m_EditorHideFlags: 0
  m_Script: {fileID: 11500000, guid: e1c77e3c6e908f14096a8207c774bbc8, type: 3}
  m_Name: 
  m_EditorClassIdentifier: 
--- !u!1 &1240160319
GameObject:
  m_ObjectHideFlags: 0
  m_CorrespondingSourceObject: {fileID: 0}
  m_PrefabInstance: {fileID: 0}
  m_PrefabAsset: {fileID: 0}
  serializedVersion: 6
  m_Component:
  - component: {fileID: 1240160320}
  m_Layer: 0
  m_Name: ===UI===
  m_TagString: Untagged
  m_Icon: {fileID: 0}
  m_NavMeshLayer: 0
  m_StaticEditorFlags: 0
  m_IsActive: 1
--- !u!4 &1240160320
Transform:
  m_ObjectHideFlags: 0
  m_CorrespondingSourceObject: {fileID: 0}
  m_PrefabInstance: {fileID: 0}
  m_PrefabAsset: {fileID: 0}
  m_GameObject: {fileID: 1240160319}
  m_LocalRotation: {x: 0, y: 0, z: 0, w: 1}
  m_LocalPosition: {x: 0, y: 0, z: 0}
  m_LocalScale: {x: 1, y: 1, z: 1}
  m_Children: []
  m_Father: {fileID: 0}
  m_RootOrder: 7
  m_LocalEulerAnglesHint: {x: 0, y: 0, z: 0}
--- !u!1001 &1294435668
PrefabInstance:
  m_ObjectHideFlags: 0
  serializedVersion: 2
  m_Modification:
    m_TransformParent: {fileID: 0}
    m_Modifications:
    - target: {fileID: 4401288159881998947, guid: 1f906cb2801337f4794e1cdcfaf3c93e,
        type: 3}
      propertyPath: m_RootOrder
      value: 9
      objectReference: {fileID: 0}
    - target: {fileID: 4401288159881998947, guid: 1f906cb2801337f4794e1cdcfaf3c93e,
        type: 3}
      propertyPath: m_LocalPosition.x
      value: 0
      objectReference: {fileID: 0}
    - target: {fileID: 4401288159881998947, guid: 1f906cb2801337f4794e1cdcfaf3c93e,
        type: 3}
      propertyPath: m_LocalPosition.y
      value: 0
      objectReference: {fileID: 0}
    - target: {fileID: 4401288159881998947, guid: 1f906cb2801337f4794e1cdcfaf3c93e,
        type: 3}
      propertyPath: m_LocalPosition.z
      value: 0
      objectReference: {fileID: 0}
    - target: {fileID: 4401288159881998947, guid: 1f906cb2801337f4794e1cdcfaf3c93e,
        type: 3}
      propertyPath: m_LocalRotation.w
      value: 1
      objectReference: {fileID: 0}
    - target: {fileID: 4401288159881998947, guid: 1f906cb2801337f4794e1cdcfaf3c93e,
        type: 3}
      propertyPath: m_LocalRotation.x
      value: 0
      objectReference: {fileID: 0}
    - target: {fileID: 4401288159881998947, guid: 1f906cb2801337f4794e1cdcfaf3c93e,
        type: 3}
      propertyPath: m_LocalRotation.y
      value: 0
      objectReference: {fileID: 0}
    - target: {fileID: 4401288159881998947, guid: 1f906cb2801337f4794e1cdcfaf3c93e,
        type: 3}
      propertyPath: m_LocalRotation.z
      value: 0
      objectReference: {fileID: 0}
    - target: {fileID: 4401288159881998947, guid: 1f906cb2801337f4794e1cdcfaf3c93e,
        type: 3}
      propertyPath: m_LocalEulerAnglesHint.x
      value: 0
      objectReference: {fileID: 0}
    - target: {fileID: 4401288159881998947, guid: 1f906cb2801337f4794e1cdcfaf3c93e,
        type: 3}
      propertyPath: m_LocalEulerAnglesHint.y
      value: 0
      objectReference: {fileID: 0}
    - target: {fileID: 4401288159881998947, guid: 1f906cb2801337f4794e1cdcfaf3c93e,
        type: 3}
      propertyPath: m_LocalEulerAnglesHint.z
      value: 0
      objectReference: {fileID: 0}
    - target: {fileID: 4401288159881998956, guid: 1f906cb2801337f4794e1cdcfaf3c93e,
        type: 3}
      propertyPath: m_Name
      value: EventSystem
      objectReference: {fileID: 0}
    m_RemovedComponents: []
  m_SourcePrefab: {fileID: 100100000, guid: 1f906cb2801337f4794e1cdcfaf3c93e, type: 3}
--- !u!1001 &1373169235
PrefabInstance:
  m_ObjectHideFlags: 0
  serializedVersion: 2
  m_Modification:
    m_TransformParent: {fileID: 0}
    m_Modifications:
    - target: {fileID: 9019261191452137568, guid: 85446a550aa112141b9faa399ecc5c03,
        type: 3}
      propertyPath: isLooping
      value: 0
      objectReference: {fileID: 0}
    - target: {fileID: 9019261191452137568, guid: 85446a550aa112141b9faa399ecc5c03,
        type: 3}
      propertyPath: noOfLoops
      value: 1
      objectReference: {fileID: 0}
    - target: {fileID: 9019261191452137568, guid: 85446a550aa112141b9faa399ecc5c03,
        type: 3}
      propertyPath: delays.Array.size
      value: 7
      objectReference: {fileID: 0}
    - target: {fileID: 9019261191452137568, guid: 85446a550aa112141b9faa399ecc5c03,
        type: 3}
      propertyPath: configs.Array.size
      value: 6
      objectReference: {fileID: 0}
    - target: {fileID: 9019261191452137568, guid: 85446a550aa112141b9faa399ecc5c03,
        type: 3}
      propertyPath: delays.Array.data[0]
      value: 5
      objectReference: {fileID: 0}
    - target: {fileID: 9019261191452137568, guid: 85446a550aa112141b9faa399ecc5c03,
        type: 3}
      propertyPath: delays.Array.data[1]
      value: 0.9
      objectReference: {fileID: 0}
    - target: {fileID: 9019261191452137568, guid: 85446a550aa112141b9faa399ecc5c03,
        type: 3}
      propertyPath: delays.Array.data[2]
      value: 0.7
      objectReference: {fileID: 0}
    - target: {fileID: 9019261191452137568, guid: 85446a550aa112141b9faa399ecc5c03,
        type: 3}
      propertyPath: delays.Array.data[3]
      value: 1
      objectReference: {fileID: 0}
    - target: {fileID: 9019261191452137568, guid: 85446a550aa112141b9faa399ecc5c03,
        type: 3}
      propertyPath: delays.Array.data[4]
      value: 0.6
      objectReference: {fileID: 0}
    - target: {fileID: 9019261191452137568, guid: 85446a550aa112141b9faa399ecc5c03,
        type: 3}
      propertyPath: delays.Array.data[5]
      value: 0.5
      objectReference: {fileID: 0}
    - target: {fileID: 9019261191452137568, guid: 85446a550aa112141b9faa399ecc5c03,
        type: 3}
      propertyPath: delays.Array.data[6]
      value: 1
      objectReference: {fileID: 0}
    - target: {fileID: 9019261191452137568, guid: 85446a550aa112141b9faa399ecc5c03,
        type: 3}
      propertyPath: configs.Array.data[0]
      value: 
      objectReference: {fileID: 11400000, guid: 5e09c224aef838c47a0542c90cb389ff,
        type: 2}
    - target: {fileID: 9019261191452137568, guid: 85446a550aa112141b9faa399ecc5c03,
        type: 3}
      propertyPath: configs.Array.data[1]
      value: 
      objectReference: {fileID: 11400000, guid: cf8874aee5e2054489bdde3be16b7c51,
        type: 2}
    - target: {fileID: 9019261191452137568, guid: 85446a550aa112141b9faa399ecc5c03,
        type: 3}
      propertyPath: configs.Array.data[2]
      value: 
      objectReference: {fileID: 11400000, guid: 3810e7e22c61cd444b8a86e4899dbba9,
        type: 2}
    - target: {fileID: 9019261191452137568, guid: 85446a550aa112141b9faa399ecc5c03,
        type: 3}
      propertyPath: configs.Array.data[3]
      value: 
      objectReference: {fileID: 11400000, guid: 3810e7e22c61cd444b8a86e4899dbba9,
        type: 2}
    - target: {fileID: 9019261191452137568, guid: 85446a550aa112141b9faa399ecc5c03,
        type: 3}
      propertyPath: configs.Array.data[4]
      value: 
      objectReference: {fileID: 11400000, guid: 104c71e7a8887554bbd186fa9840d625,
        type: 2}
    - target: {fileID: 9019261191452137568, guid: 85446a550aa112141b9faa399ecc5c03,
        type: 3}
      propertyPath: configs.Array.data[5]
      value: 
      objectReference: {fileID: 11400000, guid: 104c71e7a8887554bbd186fa9840d625,
        type: 2}
    - target: {fileID: 9019261191452137568, guid: 85446a550aa112141b9faa399ecc5c03,
        type: 3}
      propertyPath: waveConfigs.Array.size
      value: 2
      objectReference: {fileID: 0}
    - target: {fileID: 9019261191452137568, guid: 85446a550aa112141b9faa399ecc5c03,
        type: 3}
      propertyPath: waveConfigs.Array.data[0]
      value: 
      objectReference: {fileID: 11400000, guid: 2dc7567b19300be4faee88c33f04d887,
        type: 2}
    - target: {fileID: 9019261191452137568, guid: 85446a550aa112141b9faa399ecc5c03,
        type: 3}
      propertyPath: waveConfigs.Array.data[1]
      value: 
      objectReference: {fileID: 11400000, guid: cf8874aee5e2054489bdde3be16b7c51,
        type: 2}
    - target: {fileID: 9019261191452137568, guid: 85446a550aa112141b9faa399ecc5c03,
        type: 3}
      propertyPath: delayBeforeWaves.Array.size
      value: 0
      objectReference: {fileID: 0}
    - target: {fileID: 9019261191452137568, guid: 85446a550aa112141b9faa399ecc5c03,
        type: 3}
      propertyPath: delayBeforeWaves.Array.data[0]
      value: 1
      objectReference: {fileID: 0}
    - target: {fileID: 9019261191452137568, guid: 85446a550aa112141b9faa399ecc5c03,
        type: 3}
      propertyPath: delayBeforeWaves.Array.data[1]
      value: 1
      objectReference: {fileID: 0}
    - target: {fileID: 9019261191452137569, guid: 85446a550aa112141b9faa399ecc5c03,
        type: 3}
      propertyPath: m_Name
      value: Wave Spawner
      objectReference: {fileID: 0}
    - target: {fileID: 9019261191452137569, guid: 85446a550aa112141b9faa399ecc5c03,
        type: 3}
      propertyPath: m_IsActive
      value: 1
      objectReference: {fileID: 0}
    - target: {fileID: 9019261191452137599, guid: 85446a550aa112141b9faa399ecc5c03,
        type: 3}
      propertyPath: m_RootOrder
      value: 1
      objectReference: {fileID: 0}
    - target: {fileID: 9019261191452137599, guid: 85446a550aa112141b9faa399ecc5c03,
        type: 3}
      propertyPath: m_LocalPosition.x
      value: 0
      objectReference: {fileID: 0}
    - target: {fileID: 9019261191452137599, guid: 85446a550aa112141b9faa399ecc5c03,
        type: 3}
      propertyPath: m_LocalPosition.y
      value: 0
      objectReference: {fileID: 0}
    - target: {fileID: 9019261191452137599, guid: 85446a550aa112141b9faa399ecc5c03,
        type: 3}
      propertyPath: m_LocalPosition.z
      value: 0
      objectReference: {fileID: 0}
    - target: {fileID: 9019261191452137599, guid: 85446a550aa112141b9faa399ecc5c03,
        type: 3}
      propertyPath: m_LocalRotation.w
      value: 1
      objectReference: {fileID: 0}
    - target: {fileID: 9019261191452137599, guid: 85446a550aa112141b9faa399ecc5c03,
        type: 3}
      propertyPath: m_LocalRotation.x
      value: 0
      objectReference: {fileID: 0}
    - target: {fileID: 9019261191452137599, guid: 85446a550aa112141b9faa399ecc5c03,
        type: 3}
      propertyPath: m_LocalRotation.y
      value: 0
      objectReference: {fileID: 0}
    - target: {fileID: 9019261191452137599, guid: 85446a550aa112141b9faa399ecc5c03,
        type: 3}
      propertyPath: m_LocalRotation.z
      value: 0
      objectReference: {fileID: 0}
    - target: {fileID: 9019261191452137599, guid: 85446a550aa112141b9faa399ecc5c03,
        type: 3}
      propertyPath: m_LocalEulerAnglesHint.x
      value: 0
      objectReference: {fileID: 0}
    - target: {fileID: 9019261191452137599, guid: 85446a550aa112141b9faa399ecc5c03,
        type: 3}
      propertyPath: m_LocalEulerAnglesHint.y
      value: 0
      objectReference: {fileID: 0}
    - target: {fileID: 9019261191452137599, guid: 85446a550aa112141b9faa399ecc5c03,
        type: 3}
      propertyPath: m_LocalEulerAnglesHint.z
      value: 0
      objectReference: {fileID: 0}
    m_RemovedComponents: []
  m_SourcePrefab: {fileID: 100100000, guid: 85446a550aa112141b9faa399ecc5c03, type: 3}
--- !u!1001 &1680454337
PrefabInstance:
  m_ObjectHideFlags: 0
  serializedVersion: 2
  m_Modification:
    m_TransformParent: {fileID: 0}
    m_Modifications:
    - target: {fileID: 7105927078873533238, guid: a25873b48cf4c024985ea06a67b819b7,
        type: 3}
      propertyPath: m_RootOrder
      value: 16
      objectReference: {fileID: 0}
    - target: {fileID: 7105927078873533238, guid: a25873b48cf4c024985ea06a67b819b7,
        type: 3}
      propertyPath: m_LocalPosition.x
      value: 0
      objectReference: {fileID: 0}
    - target: {fileID: 7105927078873533238, guid: a25873b48cf4c024985ea06a67b819b7,
        type: 3}
      propertyPath: m_LocalPosition.y
      value: 0
      objectReference: {fileID: 0}
    - target: {fileID: 7105927078873533238, guid: a25873b48cf4c024985ea06a67b819b7,
        type: 3}
      propertyPath: m_LocalPosition.z
      value: 0
      objectReference: {fileID: 0}
    - target: {fileID: 7105927078873533238, guid: a25873b48cf4c024985ea06a67b819b7,
        type: 3}
      propertyPath: m_LocalRotation.w
      value: 1
      objectReference: {fileID: 0}
    - target: {fileID: 7105927078873533238, guid: a25873b48cf4c024985ea06a67b819b7,
        type: 3}
      propertyPath: m_LocalRotation.x
      value: 0
      objectReference: {fileID: 0}
    - target: {fileID: 7105927078873533238, guid: a25873b48cf4c024985ea06a67b819b7,
        type: 3}
      propertyPath: m_LocalRotation.y
      value: 0
      objectReference: {fileID: 0}
    - target: {fileID: 7105927078873533238, guid: a25873b48cf4c024985ea06a67b819b7,
        type: 3}
      propertyPath: m_LocalRotation.z
      value: 0
      objectReference: {fileID: 0}
    - target: {fileID: 7105927078873533238, guid: a25873b48cf4c024985ea06a67b819b7,
        type: 3}
      propertyPath: m_LocalEulerAnglesHint.x
      value: 0
      objectReference: {fileID: 0}
    - target: {fileID: 7105927078873533238, guid: a25873b48cf4c024985ea06a67b819b7,
        type: 3}
      propertyPath: m_LocalEulerAnglesHint.y
      value: 0
      objectReference: {fileID: 0}
    - target: {fileID: 7105927078873533238, guid: a25873b48cf4c024985ea06a67b819b7,
        type: 3}
      propertyPath: m_LocalEulerAnglesHint.z
      value: 0
      objectReference: {fileID: 0}
    - target: {fileID: 7105927078873533243, guid: a25873b48cf4c024985ea06a67b819b7,
        type: 3}
      propertyPath: m_Name
      value: Music Manager
      objectReference: {fileID: 0}
    m_RemovedComponents: []
  m_SourcePrefab: {fileID: 100100000, guid: a25873b48cf4c024985ea06a67b819b7, type: 3}
--- !u!1001 &1835885279
PrefabInstance:
  m_ObjectHideFlags: 0
  serializedVersion: 2
  m_Modification:
    m_TransformParent: {fileID: 0}
    m_Modifications:
    - target: {fileID: 9015224638666148512, guid: bfc309daf45e77d43a403da5c7ee3fe7,
        type: 3}
      propertyPath: m_Name
      value: Tracker Spawner
      objectReference: {fileID: 0}
    - target: {fileID: 9015224638666148514, guid: bfc309daf45e77d43a403da5c7ee3fe7,
        type: 3}
      propertyPath: m_RootOrder
      value: 2
      objectReference: {fileID: 0}
    - target: {fileID: 9015224638666148514, guid: bfc309daf45e77d43a403da5c7ee3fe7,
        type: 3}
      propertyPath: m_LocalPosition.x
      value: 0
      objectReference: {fileID: 0}
    - target: {fileID: 9015224638666148514, guid: bfc309daf45e77d43a403da5c7ee3fe7,
        type: 3}
      propertyPath: m_LocalPosition.y
      value: 0
      objectReference: {fileID: 0}
    - target: {fileID: 9015224638666148514, guid: bfc309daf45e77d43a403da5c7ee3fe7,
        type: 3}
      propertyPath: m_LocalPosition.z
      value: 0
      objectReference: {fileID: 0}
    - target: {fileID: 9015224638666148514, guid: bfc309daf45e77d43a403da5c7ee3fe7,
        type: 3}
      propertyPath: m_LocalRotation.w
      value: 1
      objectReference: {fileID: 0}
    - target: {fileID: 9015224638666148514, guid: bfc309daf45e77d43a403da5c7ee3fe7,
        type: 3}
      propertyPath: m_LocalRotation.x
      value: 0
      objectReference: {fileID: 0}
    - target: {fileID: 9015224638666148514, guid: bfc309daf45e77d43a403da5c7ee3fe7,
        type: 3}
      propertyPath: m_LocalRotation.y
      value: 0
      objectReference: {fileID: 0}
    - target: {fileID: 9015224638666148514, guid: bfc309daf45e77d43a403da5c7ee3fe7,
        type: 3}
      propertyPath: m_LocalRotation.z
      value: 0
      objectReference: {fileID: 0}
    - target: {fileID: 9015224638666148514, guid: bfc309daf45e77d43a403da5c7ee3fe7,
        type: 3}
      propertyPath: m_LocalEulerAnglesHint.x
      value: 0
      objectReference: {fileID: 0}
    - target: {fileID: 9015224638666148514, guid: bfc309daf45e77d43a403da5c7ee3fe7,
        type: 3}
      propertyPath: m_LocalEulerAnglesHint.y
      value: 0
      objectReference: {fileID: 0}
    - target: {fileID: 9015224638666148514, guid: bfc309daf45e77d43a403da5c7ee3fe7,
        type: 3}
      propertyPath: m_LocalEulerAnglesHint.z
      value: 0
      objectReference: {fileID: 0}
    - target: {fileID: 9015224638666148515, guid: bfc309daf45e77d43a403da5c7ee3fe7,
        type: 3}
      propertyPath: noOfLoops
      value: 1
      objectReference: {fileID: 0}
    - target: {fileID: 9015224638666148515, guid: bfc309daf45e77d43a403da5c7ee3fe7,
        type: 3}
      propertyPath: delays.Array.size
      value: 1
      objectReference: {fileID: 0}
    - target: {fileID: 9015224638666148515, guid: bfc309daf45e77d43a403da5c7ee3fe7,
        type: 3}
      propertyPath: configs.Array.size
      value: 3
      objectReference: {fileID: 0}
    - target: {fileID: 9015224638666148515, guid: bfc309daf45e77d43a403da5c7ee3fe7,
        type: 3}
      propertyPath: delays.Array.data[0]
      value: 1
      objectReference: {fileID: 0}
    - target: {fileID: 9015224638666148515, guid: bfc309daf45e77d43a403da5c7ee3fe7,
        type: 3}
      propertyPath: configs.Array.data[1]
      value: 
      objectReference: {fileID: 11400000, guid: 7e62b458b44274e4b91273006e39f249,
        type: 2}
    - target: {fileID: 9015224638666148515, guid: bfc309daf45e77d43a403da5c7ee3fe7,
        type: 3}
      propertyPath: configs.Array.data[2]
      value: 
      objectReference: {fileID: 11400000, guid: c43ee81d6b0b72246824a43d01b9b021,
        type: 2}
    m_RemovedComponents: []
  m_SourcePrefab: {fileID: 100100000, guid: bfc309daf45e77d43a403da5c7ee3fe7, type: 3}
--- !u!1001 &1864591471
PrefabInstance:
  m_ObjectHideFlags: 0
  serializedVersion: 2
  m_Modification:
    m_TransformParent: {fileID: 0}
    m_Modifications:
    - target: {fileID: 5514438671909354810, guid: 9f8b9231e9734d94bae2f895752d18c1,
        type: 3}
      propertyPath: m_RootOrder
      value: 18
      objectReference: {fileID: 0}
    - target: {fileID: 5514438671909354810, guid: 9f8b9231e9734d94bae2f895752d18c1,
        type: 3}
      propertyPath: m_LocalPosition.x
      value: 0
      objectReference: {fileID: 0}
    - target: {fileID: 5514438671909354810, guid: 9f8b9231e9734d94bae2f895752d18c1,
        type: 3}
      propertyPath: m_LocalPosition.y
      value: 0
      objectReference: {fileID: 0}
    - target: {fileID: 5514438671909354810, guid: 9f8b9231e9734d94bae2f895752d18c1,
        type: 3}
      propertyPath: m_LocalPosition.z
      value: 0
      objectReference: {fileID: 0}
    - target: {fileID: 5514438671909354810, guid: 9f8b9231e9734d94bae2f895752d18c1,
        type: 3}
      propertyPath: m_LocalRotation.w
      value: 1
      objectReference: {fileID: 0}
    - target: {fileID: 5514438671909354810, guid: 9f8b9231e9734d94bae2f895752d18c1,
        type: 3}
      propertyPath: m_LocalRotation.x
      value: 0
      objectReference: {fileID: 0}
    - target: {fileID: 5514438671909354810, guid: 9f8b9231e9734d94bae2f895752d18c1,
        type: 3}
      propertyPath: m_LocalRotation.y
      value: 0
      objectReference: {fileID: 0}
    - target: {fileID: 5514438671909354810, guid: 9f8b9231e9734d94bae2f895752d18c1,
        type: 3}
      propertyPath: m_LocalRotation.z
      value: 0
      objectReference: {fileID: 0}
    - target: {fileID: 5514438671909354810, guid: 9f8b9231e9734d94bae2f895752d18c1,
        type: 3}
      propertyPath: m_LocalEulerAnglesHint.x
      value: 0
      objectReference: {fileID: 0}
    - target: {fileID: 5514438671909354810, guid: 9f8b9231e9734d94bae2f895752d18c1,
        type: 3}
      propertyPath: m_LocalEulerAnglesHint.y
      value: 0
      objectReference: {fileID: 0}
    - target: {fileID: 5514438671909354810, guid: 9f8b9231e9734d94bae2f895752d18c1,
        type: 3}
      propertyPath: m_LocalEulerAnglesHint.z
      value: 0
      objectReference: {fileID: 0}
    - target: {fileID: 5514438671909354812, guid: 9f8b9231e9734d94bae2f895752d18c1,
        type: 3}
      propertyPath: m_Name
      value: Progress Manager
      objectReference: {fileID: 0}
    m_RemovedComponents: []
  m_SourcePrefab: {fileID: 100100000, guid: 9f8b9231e9734d94bae2f895752d18c1, type: 3}
--- !u!95 &1943209306 stripped
Animator:
  m_CorrespondingSourceObject: {fileID: 770946590, guid: 4574baa06535e0644b0a9bddd56d1b13,
    type: 3}
  m_PrefabInstance: {fileID: 3386062760736760562}
  m_PrefabAsset: {fileID: 0}
--- !u!1001 &121871495988542962
PrefabInstance:
  m_ObjectHideFlags: 0
  serializedVersion: 2
  m_Modification:
    m_TransformParent: {fileID: 0}
    m_Modifications:
    - target: {fileID: 121871495614023026, guid: 6da7e5470b80df4419d2386366f8e5ec,
        type: 3}
      propertyPath: m_RootOrder
      value: 0
      objectReference: {fileID: 0}
    - target: {fileID: 121871495614023026, guid: 6da7e5470b80df4419d2386366f8e5ec,
        type: 3}
      propertyPath: m_LocalPosition.x
      value: 0
      objectReference: {fileID: 0}
    - target: {fileID: 121871495614023026, guid: 6da7e5470b80df4419d2386366f8e5ec,
        type: 3}
      propertyPath: m_LocalPosition.y
      value: 0
      objectReference: {fileID: 0}
    - target: {fileID: 121871495614023026, guid: 6da7e5470b80df4419d2386366f8e5ec,
        type: 3}
      propertyPath: m_LocalPosition.z
      value: -10
      objectReference: {fileID: 0}
    - target: {fileID: 121871495614023026, guid: 6da7e5470b80df4419d2386366f8e5ec,
        type: 3}
      propertyPath: m_LocalRotation.w
      value: 1
      objectReference: {fileID: 0}
    - target: {fileID: 121871495614023026, guid: 6da7e5470b80df4419d2386366f8e5ec,
        type: 3}
      propertyPath: m_LocalRotation.x
      value: 0
      objectReference: {fileID: 0}
    - target: {fileID: 121871495614023026, guid: 6da7e5470b80df4419d2386366f8e5ec,
        type: 3}
      propertyPath: m_LocalRotation.y
      value: 0
      objectReference: {fileID: 0}
    - target: {fileID: 121871495614023026, guid: 6da7e5470b80df4419d2386366f8e5ec,
        type: 3}
      propertyPath: m_LocalRotation.z
      value: 0
      objectReference: {fileID: 0}
    - target: {fileID: 121871495614023026, guid: 6da7e5470b80df4419d2386366f8e5ec,
        type: 3}
      propertyPath: m_LocalEulerAnglesHint.x
      value: 0
      objectReference: {fileID: 0}
    - target: {fileID: 121871495614023026, guid: 6da7e5470b80df4419d2386366f8e5ec,
        type: 3}
      propertyPath: m_LocalEulerAnglesHint.y
      value: 0
      objectReference: {fileID: 0}
    - target: {fileID: 121871495614023026, guid: 6da7e5470b80df4419d2386366f8e5ec,
        type: 3}
      propertyPath: m_LocalEulerAnglesHint.z
      value: 0
      objectReference: {fileID: 0}
    - target: {fileID: 121871495614023054, guid: 6da7e5470b80df4419d2386366f8e5ec,
        type: 3}
      propertyPath: m_Name
      value: Main Camera
      objectReference: {fileID: 0}
    m_RemovedComponents: []
  m_SourcePrefab: {fileID: 100100000, guid: 6da7e5470b80df4419d2386366f8e5ec, type: 3}
--- !u!1001 &1169276882910975442
PrefabInstance:
  m_ObjectHideFlags: 0
  serializedVersion: 2
  m_Modification:
    m_TransformParent: {fileID: 0}
    m_Modifications:
    - target: {fileID: 1169276882474924487, guid: 1fe3d08ac675d86468e8a237eb546fa5,
        type: 3}
      propertyPath: m_Name
      value: Scrolling Background
      objectReference: {fileID: 0}
    - target: {fileID: 1169276882474924487, guid: 1fe3d08ac675d86468e8a237eb546fa5,
        type: 3}
      propertyPath: m_IsActive
      value: 1
      objectReference: {fileID: 0}
    - target: {fileID: 1169276882474924490, guid: 1fe3d08ac675d86468e8a237eb546fa5,
        type: 3}
      propertyPath: m_RootOrder
      value: 4
      objectReference: {fileID: 0}
    - target: {fileID: 1169276882474924490, guid: 1fe3d08ac675d86468e8a237eb546fa5,
        type: 3}
      propertyPath: m_LocalPosition.x
      value: 0
      objectReference: {fileID: 0}
    - target: {fileID: 1169276882474924490, guid: 1fe3d08ac675d86468e8a237eb546fa5,
        type: 3}
      propertyPath: m_LocalPosition.y
      value: 0
      objectReference: {fileID: 0}
    - target: {fileID: 1169276882474924490, guid: 1fe3d08ac675d86468e8a237eb546fa5,
        type: 3}
      propertyPath: m_LocalPosition.z
      value: 0
      objectReference: {fileID: 0}
    - target: {fileID: 1169276882474924490, guid: 1fe3d08ac675d86468e8a237eb546fa5,
        type: 3}
      propertyPath: m_LocalRotation.w
      value: 1
      objectReference: {fileID: 0}
    - target: {fileID: 1169276882474924490, guid: 1fe3d08ac675d86468e8a237eb546fa5,
        type: 3}
      propertyPath: m_LocalRotation.x
      value: 0
      objectReference: {fileID: 0}
    - target: {fileID: 1169276882474924490, guid: 1fe3d08ac675d86468e8a237eb546fa5,
        type: 3}
      propertyPath: m_LocalRotation.y
      value: 0
      objectReference: {fileID: 0}
    - target: {fileID: 1169276882474924490, guid: 1fe3d08ac675d86468e8a237eb546fa5,
        type: 3}
      propertyPath: m_LocalRotation.z
      value: 0
      objectReference: {fileID: 0}
    - target: {fileID: 1169276882474924490, guid: 1fe3d08ac675d86468e8a237eb546fa5,
        type: 3}
      propertyPath: m_LocalEulerAnglesHint.x
      value: 0
      objectReference: {fileID: 0}
    - target: {fileID: 1169276882474924490, guid: 1fe3d08ac675d86468e8a237eb546fa5,
        type: 3}
      propertyPath: m_LocalEulerAnglesHint.y
      value: 0
      objectReference: {fileID: 0}
    - target: {fileID: 1169276882474924490, guid: 1fe3d08ac675d86468e8a237eb546fa5,
        type: 3}
      propertyPath: m_LocalEulerAnglesHint.z
      value: 0
      objectReference: {fileID: 0}
    m_RemovedComponents: []
  m_SourcePrefab: {fileID: 100100000, guid: 1fe3d08ac675d86468e8a237eb546fa5, type: 3}
--- !u!1001 &1853681718491193976
PrefabInstance:
  m_ObjectHideFlags: 0
  serializedVersion: 2
  m_Modification:
    m_TransformParent: {fileID: 0}
    m_Modifications:
    - target: {fileID: 1982175036009306737, guid: 5b061f82390fef34ab5673b4d39fff18,
        type: 3}
      propertyPath: m_Name
      value: Score Display
      objectReference: {fileID: 0}
    - target: {fileID: 4955247013159726875, guid: 5b061f82390fef34ab5673b4d39fff18,
        type: 3}
      propertyPath: m_Pivot.x
      value: 0
      objectReference: {fileID: 0}
    - target: {fileID: 4955247013159726875, guid: 5b061f82390fef34ab5673b4d39fff18,
        type: 3}
      propertyPath: m_Pivot.y
      value: 0
      objectReference: {fileID: 0}
    - target: {fileID: 4955247013159726875, guid: 5b061f82390fef34ab5673b4d39fff18,
        type: 3}
      propertyPath: m_RootOrder
      value: 8
      objectReference: {fileID: 0}
    - target: {fileID: 4955247013159726875, guid: 5b061f82390fef34ab5673b4d39fff18,
        type: 3}
      propertyPath: m_AnchorMax.x
      value: 0
      objectReference: {fileID: 0}
    - target: {fileID: 4955247013159726875, guid: 5b061f82390fef34ab5673b4d39fff18,
        type: 3}
      propertyPath: m_AnchorMax.y
      value: 0
      objectReference: {fileID: 0}
    - target: {fileID: 4955247013159726875, guid: 5b061f82390fef34ab5673b4d39fff18,
        type: 3}
      propertyPath: m_AnchorMin.x
      value: 0
      objectReference: {fileID: 0}
    - target: {fileID: 4955247013159726875, guid: 5b061f82390fef34ab5673b4d39fff18,
        type: 3}
      propertyPath: m_AnchorMin.y
      value: 0
      objectReference: {fileID: 0}
    - target: {fileID: 4955247013159726875, guid: 5b061f82390fef34ab5673b4d39fff18,
        type: 3}
      propertyPath: m_SizeDelta.x
      value: 0
      objectReference: {fileID: 0}
    - target: {fileID: 4955247013159726875, guid: 5b061f82390fef34ab5673b4d39fff18,
        type: 3}
      propertyPath: m_SizeDelta.y
      value: 0
      objectReference: {fileID: 0}
    - target: {fileID: 4955247013159726875, guid: 5b061f82390fef34ab5673b4d39fff18,
        type: 3}
      propertyPath: m_LocalPosition.x
      value: 0
      objectReference: {fileID: 0}
    - target: {fileID: 4955247013159726875, guid: 5b061f82390fef34ab5673b4d39fff18,
        type: 3}
      propertyPath: m_LocalPosition.y
      value: 0
      objectReference: {fileID: 0}
    - target: {fileID: 4955247013159726875, guid: 5b061f82390fef34ab5673b4d39fff18,
        type: 3}
      propertyPath: m_LocalPosition.z
      value: 0
      objectReference: {fileID: 0}
    - target: {fileID: 4955247013159726875, guid: 5b061f82390fef34ab5673b4d39fff18,
        type: 3}
      propertyPath: m_LocalRotation.w
      value: 1
      objectReference: {fileID: 0}
    - target: {fileID: 4955247013159726875, guid: 5b061f82390fef34ab5673b4d39fff18,
        type: 3}
      propertyPath: m_LocalRotation.x
      value: 0
      objectReference: {fileID: 0}
    - target: {fileID: 4955247013159726875, guid: 5b061f82390fef34ab5673b4d39fff18,
        type: 3}
      propertyPath: m_LocalRotation.y
      value: 0
      objectReference: {fileID: 0}
    - target: {fileID: 4955247013159726875, guid: 5b061f82390fef34ab5673b4d39fff18,
        type: 3}
      propertyPath: m_LocalRotation.z
      value: 0
      objectReference: {fileID: 0}
    - target: {fileID: 4955247013159726875, guid: 5b061f82390fef34ab5673b4d39fff18,
        type: 3}
      propertyPath: m_AnchoredPosition.x
      value: 0
      objectReference: {fileID: 0}
    - target: {fileID: 4955247013159726875, guid: 5b061f82390fef34ab5673b4d39fff18,
        type: 3}
      propertyPath: m_AnchoredPosition.y
      value: 0
      objectReference: {fileID: 0}
    - target: {fileID: 4955247013159726875, guid: 5b061f82390fef34ab5673b4d39fff18,
        type: 3}
      propertyPath: m_LocalEulerAnglesHint.x
      value: 0
      objectReference: {fileID: 0}
    - target: {fileID: 4955247013159726875, guid: 5b061f82390fef34ab5673b4d39fff18,
        type: 3}
      propertyPath: m_LocalEulerAnglesHint.y
      value: 0
      objectReference: {fileID: 0}
    - target: {fileID: 4955247013159726875, guid: 5b061f82390fef34ab5673b4d39fff18,
        type: 3}
      propertyPath: m_LocalEulerAnglesHint.z
      value: 0
      objectReference: {fileID: 0}
    m_RemovedComponents: []
  m_SourcePrefab: {fileID: 100100000, guid: 5b061f82390fef34ab5673b4d39fff18, type: 3}
--- !u!1001 &2195039159380389415
PrefabInstance:
  m_ObjectHideFlags: 0
  serializedVersion: 2
  m_Modification:
    m_TransformParent: {fileID: 0}
    m_Modifications:
    - target: {fileID: 2195039158110793249, guid: 337f4473bd4c81a44bb3feeef2313292,
        type: 3}
      propertyPath: m_RootOrder
      value: 12
      objectReference: {fileID: 0}
    - target: {fileID: 2195039158110793249, guid: 337f4473bd4c81a44bb3feeef2313292,
        type: 3}
      propertyPath: m_LocalPosition.x
      value: 0
      objectReference: {fileID: 0}
    - target: {fileID: 2195039158110793249, guid: 337f4473bd4c81a44bb3feeef2313292,
        type: 3}
      propertyPath: m_LocalPosition.y
      value: 0
      objectReference: {fileID: 0}
    - target: {fileID: 2195039158110793249, guid: 337f4473bd4c81a44bb3feeef2313292,
        type: 3}
      propertyPath: m_LocalPosition.z
      value: 0
      objectReference: {fileID: 0}
    - target: {fileID: 2195039158110793249, guid: 337f4473bd4c81a44bb3feeef2313292,
        type: 3}
      propertyPath: m_LocalRotation.w
      value: 1
      objectReference: {fileID: 0}
    - target: {fileID: 2195039158110793249, guid: 337f4473bd4c81a44bb3feeef2313292,
        type: 3}
      propertyPath: m_LocalRotation.x
      value: -0
      objectReference: {fileID: 0}
    - target: {fileID: 2195039158110793249, guid: 337f4473bd4c81a44bb3feeef2313292,
        type: 3}
      propertyPath: m_LocalRotation.y
      value: -0
      objectReference: {fileID: 0}
    - target: {fileID: 2195039158110793249, guid: 337f4473bd4c81a44bb3feeef2313292,
        type: 3}
      propertyPath: m_LocalRotation.z
      value: -0
      objectReference: {fileID: 0}
    - target: {fileID: 2195039158110793249, guid: 337f4473bd4c81a44bb3feeef2313292,
        type: 3}
      propertyPath: m_LocalEulerAnglesHint.x
      value: 0
      objectReference: {fileID: 0}
    - target: {fileID: 2195039158110793249, guid: 337f4473bd4c81a44bb3feeef2313292,
        type: 3}
      propertyPath: m_LocalEulerAnglesHint.y
      value: 0
      objectReference: {fileID: 0}
    - target: {fileID: 2195039158110793249, guid: 337f4473bd4c81a44bb3feeef2313292,
        type: 3}
      propertyPath: m_LocalEulerAnglesHint.z
      value: 0
      objectReference: {fileID: 0}
    - target: {fileID: 2195039158110793250, guid: 337f4473bd4c81a44bb3feeef2313292,
        type: 3}
      propertyPath: animator
      value: 
      objectReference: {fileID: 1943209306}
    - target: {fileID: 2195039158110793251, guid: 337f4473bd4c81a44bb3feeef2313292,
        type: 3}
      propertyPath: m_Name
      value: Player Animation Manager
      objectReference: {fileID: 0}
    m_RemovedComponents: []
  m_SourcePrefab: {fileID: 100100000, guid: 337f4473bd4c81a44bb3feeef2313292, type: 3}
--- !u!1001 &3386062760736760562
PrefabInstance:
  m_ObjectHideFlags: 0
  serializedVersion: 2
  m_Modification:
    m_TransformParent: {fileID: 0}
    m_Modifications:
    - target: {fileID: 1084418796, guid: 4574baa06535e0644b0a9bddd56d1b13, type: 3}
      propertyPath: blinkFreq
      value: 20
      objectReference: {fileID: 0}
    - target: {fileID: 1084418796, guid: 4574baa06535e0644b0a9bddd56d1b13, type: 3}
      propertyPath: compareTag
      value: Enemy
      objectReference: {fileID: 0}
    - target: {fileID: 1084418796, guid: 4574baa06535e0644b0a9bddd56d1b13, type: 3}
      propertyPath: healthDisplay
      value: 
      objectReference: {fileID: 1220384107}
    - target: {fileID: 1084418796, guid: 4574baa06535e0644b0a9bddd56d1b13, type: 3}
      propertyPath: playerImmunityDuration
      value: 1
      objectReference: {fileID: 0}
    - target: {fileID: 1943209310, guid: 4574baa06535e0644b0a9bddd56d1b13, type: 3}
      propertyPath: burstRate
      value: 1
      objectReference: {fileID: 0}
    - target: {fileID: 1943209310, guid: 4574baa06535e0644b0a9bddd56d1b13, type: 3}
      propertyPath: burstRounds
      value: 1
      objectReference: {fileID: 0}
    - target: {fileID: 1943209310, guid: 4574baa06535e0644b0a9bddd56d1b13, type: 3}
      propertyPath: shootingCooldown
      value: 0.17
      objectReference: {fileID: 0}
    - target: {fileID: 1943209310, guid: 4574baa06535e0644b0a9bddd56d1b13, type: 3}
      propertyPath: shootPoints.Array.data[0].y
      value: 0.5
      objectReference: {fileID: 0}
    - target: {fileID: 3386062760882060620, guid: 4574baa06535e0644b0a9bddd56d1b13,
        type: 3}
      propertyPath: m_RootOrder
      value: 3
      objectReference: {fileID: 0}
    - target: {fileID: 3386062760882060620, guid: 4574baa06535e0644b0a9bddd56d1b13,
        type: 3}
      propertyPath: m_LocalPosition.x
      value: 0
      objectReference: {fileID: 0}
    - target: {fileID: 3386062760882060620, guid: 4574baa06535e0644b0a9bddd56d1b13,
        type: 3}
      propertyPath: m_LocalPosition.y
      value: -4.35
      objectReference: {fileID: 0}
    - target: {fileID: 3386062760882060620, guid: 4574baa06535e0644b0a9bddd56d1b13,
        type: 3}
      propertyPath: m_LocalPosition.z
      value: 0
      objectReference: {fileID: 0}
    - target: {fileID: 3386062760882060620, guid: 4574baa06535e0644b0a9bddd56d1b13,
        type: 3}
      propertyPath: m_LocalRotation.w
      value: 1
      objectReference: {fileID: 0}
    - target: {fileID: 3386062760882060620, guid: 4574baa06535e0644b0a9bddd56d1b13,
        type: 3}
      propertyPath: m_LocalRotation.x
      value: 0
      objectReference: {fileID: 0}
    - target: {fileID: 3386062760882060620, guid: 4574baa06535e0644b0a9bddd56d1b13,
        type: 3}
      propertyPath: m_LocalRotation.y
      value: 0
      objectReference: {fileID: 0}
    - target: {fileID: 3386062760882060620, guid: 4574baa06535e0644b0a9bddd56d1b13,
        type: 3}
      propertyPath: m_LocalRotation.z
      value: 0
      objectReference: {fileID: 0}
    - target: {fileID: 3386062760882060620, guid: 4574baa06535e0644b0a9bddd56d1b13,
        type: 3}
      propertyPath: m_LocalEulerAnglesHint.x
      value: 0
      objectReference: {fileID: 0}
    - target: {fileID: 3386062760882060620, guid: 4574baa06535e0644b0a9bddd56d1b13,
        type: 3}
      propertyPath: m_LocalEulerAnglesHint.y
      value: 0
      objectReference: {fileID: 0}
    - target: {fileID: 3386062760882060620, guid: 4574baa06535e0644b0a9bddd56d1b13,
        type: 3}
      propertyPath: m_LocalEulerAnglesHint.z
      value: 0
      objectReference: {fileID: 0}
    - target: {fileID: 3386062760882060622, guid: 4574baa06535e0644b0a9bddd56d1b13,
        type: 3}
      propertyPath: m_Name
      value: Player
      objectReference: {fileID: 0}
    m_RemovedComponents: []
  m_SourcePrefab: {fileID: 100100000, guid: 4574baa06535e0644b0a9bddd56d1b13, type: 3}
--- !u!1001 &3495797603394338359
PrefabInstance:
  m_ObjectHideFlags: 0
  serializedVersion: 2
  m_Modification:
    m_TransformParent: {fileID: 0}
    m_Modifications:
    - target: {fileID: 3495797603602198313, guid: fb1cc5ddb6b94084d8e8e62a1f6820ca,
        type: 3}
      propertyPath: m_AnchorMax.x
      value: 0
      objectReference: {fileID: 0}
    - target: {fileID: 3495797603602198313, guid: fb1cc5ddb6b94084d8e8e62a1f6820ca,
        type: 3}
      propertyPath: m_AnchorMax.y
      value: 0
      objectReference: {fileID: 0}
    - target: {fileID: 3495797604590463825, guid: fb1cc5ddb6b94084d8e8e62a1f6820ca,
        type: 3}
      propertyPath: m_Name
      value: Health Display
      objectReference: {fileID: 0}
    - target: {fileID: 3495797604590463837, guid: fb1cc5ddb6b94084d8e8e62a1f6820ca,
        type: 3}
      propertyPath: m_Pivot.x
      value: 0
      objectReference: {fileID: 0}
    - target: {fileID: 3495797604590463837, guid: fb1cc5ddb6b94084d8e8e62a1f6820ca,
        type: 3}
      propertyPath: m_Pivot.y
      value: 0
      objectReference: {fileID: 0}
    - target: {fileID: 3495797604590463837, guid: fb1cc5ddb6b94084d8e8e62a1f6820ca,
        type: 3}
      propertyPath: m_RootOrder
      value: 6
      objectReference: {fileID: 0}
    - target: {fileID: 3495797604590463837, guid: fb1cc5ddb6b94084d8e8e62a1f6820ca,
        type: 3}
      propertyPath: m_AnchorMax.x
      value: 0
      objectReference: {fileID: 0}
    - target: {fileID: 3495797604590463837, guid: fb1cc5ddb6b94084d8e8e62a1f6820ca,
        type: 3}
      propertyPath: m_AnchorMax.y
      value: 0
      objectReference: {fileID: 0}
    - target: {fileID: 3495797604590463837, guid: fb1cc5ddb6b94084d8e8e62a1f6820ca,
        type: 3}
      propertyPath: m_AnchorMin.x
      value: 0
      objectReference: {fileID: 0}
    - target: {fileID: 3495797604590463837, guid: fb1cc5ddb6b94084d8e8e62a1f6820ca,
        type: 3}
      propertyPath: m_AnchorMin.y
      value: 0
      objectReference: {fileID: 0}
    - target: {fileID: 3495797604590463837, guid: fb1cc5ddb6b94084d8e8e62a1f6820ca,
        type: 3}
      propertyPath: m_SizeDelta.x
      value: 0
      objectReference: {fileID: 0}
    - target: {fileID: 3495797604590463837, guid: fb1cc5ddb6b94084d8e8e62a1f6820ca,
        type: 3}
      propertyPath: m_SizeDelta.y
      value: 0
      objectReference: {fileID: 0}
    - target: {fileID: 3495797604590463837, guid: fb1cc5ddb6b94084d8e8e62a1f6820ca,
        type: 3}
      propertyPath: m_LocalPosition.x
      value: 0
      objectReference: {fileID: 0}
    - target: {fileID: 3495797604590463837, guid: fb1cc5ddb6b94084d8e8e62a1f6820ca,
        type: 3}
      propertyPath: m_LocalPosition.y
      value: 0
      objectReference: {fileID: 0}
    - target: {fileID: 3495797604590463837, guid: fb1cc5ddb6b94084d8e8e62a1f6820ca,
        type: 3}
      propertyPath: m_LocalPosition.z
      value: 0
      objectReference: {fileID: 0}
    - target: {fileID: 3495797604590463837, guid: fb1cc5ddb6b94084d8e8e62a1f6820ca,
        type: 3}
      propertyPath: m_LocalRotation.w
      value: 1
      objectReference: {fileID: 0}
    - target: {fileID: 3495797604590463837, guid: fb1cc5ddb6b94084d8e8e62a1f6820ca,
        type: 3}
      propertyPath: m_LocalRotation.x
      value: 0
      objectReference: {fileID: 0}
    - target: {fileID: 3495797604590463837, guid: fb1cc5ddb6b94084d8e8e62a1f6820ca,
        type: 3}
      propertyPath: m_LocalRotation.y
      value: 0
      objectReference: {fileID: 0}
    - target: {fileID: 3495797604590463837, guid: fb1cc5ddb6b94084d8e8e62a1f6820ca,
        type: 3}
      propertyPath: m_LocalRotation.z
      value: 0
      objectReference: {fileID: 0}
    - target: {fileID: 3495797604590463837, guid: fb1cc5ddb6b94084d8e8e62a1f6820ca,
        type: 3}
      propertyPath: m_AnchoredPosition.x
      value: 0
      objectReference: {fileID: 0}
    - target: {fileID: 3495797604590463837, guid: fb1cc5ddb6b94084d8e8e62a1f6820ca,
        type: 3}
      propertyPath: m_AnchoredPosition.y
      value: 0
      objectReference: {fileID: 0}
    - target: {fileID: 3495797604590463837, guid: fb1cc5ddb6b94084d8e8e62a1f6820ca,
        type: 3}
      propertyPath: m_LocalEulerAnglesHint.x
      value: 0
      objectReference: {fileID: 0}
    - target: {fileID: 3495797604590463837, guid: fb1cc5ddb6b94084d8e8e62a1f6820ca,
        type: 3}
      propertyPath: m_LocalEulerAnglesHint.y
      value: 0
      objectReference: {fileID: 0}
    - target: {fileID: 3495797604590463837, guid: fb1cc5ddb6b94084d8e8e62a1f6820ca,
        type: 3}
      propertyPath: m_LocalEulerAnglesHint.z
      value: 0
      objectReference: {fileID: 0}
    m_RemovedComponents: []
  m_SourcePrefab: {fileID: 100100000, guid: fb1cc5ddb6b94084d8e8e62a1f6820ca, type: 3}
--- !u!1001 &3957627392056808037
PrefabInstance:
  m_ObjectHideFlags: 0
  serializedVersion: 2
  m_Modification:
    m_TransformParent: {fileID: 0}
    m_Modifications:
    - target: {fileID: 3957627393269448016, guid: c5e05319ed3683848953d19176a73cd8,
        type: 3}
      propertyPath: m_RootOrder
      value: 10
      objectReference: {fileID: 0}
    - target: {fileID: 3957627393269448016, guid: c5e05319ed3683848953d19176a73cd8,
        type: 3}
      propertyPath: m_LocalPosition.x
      value: 0
      objectReference: {fileID: 0}
    - target: {fileID: 3957627393269448016, guid: c5e05319ed3683848953d19176a73cd8,
        type: 3}
      propertyPath: m_LocalPosition.y
      value: 0
      objectReference: {fileID: 0}
    - target: {fileID: 3957627393269448016, guid: c5e05319ed3683848953d19176a73cd8,
        type: 3}
      propertyPath: m_LocalPosition.z
      value: 0
      objectReference: {fileID: 0}
    - target: {fileID: 3957627393269448016, guid: c5e05319ed3683848953d19176a73cd8,
        type: 3}
      propertyPath: m_LocalRotation.w
      value: 1
      objectReference: {fileID: 0}
    - target: {fileID: 3957627393269448016, guid: c5e05319ed3683848953d19176a73cd8,
        type: 3}
      propertyPath: m_LocalRotation.x
      value: -0
      objectReference: {fileID: 0}
    - target: {fileID: 3957627393269448016, guid: c5e05319ed3683848953d19176a73cd8,
        type: 3}
      propertyPath: m_LocalRotation.y
      value: -0
      objectReference: {fileID: 0}
    - target: {fileID: 3957627393269448016, guid: c5e05319ed3683848953d19176a73cd8,
        type: 3}
      propertyPath: m_LocalRotation.z
      value: -0
      objectReference: {fileID: 0}
    - target: {fileID: 3957627393269448016, guid: c5e05319ed3683848953d19176a73cd8,
        type: 3}
      propertyPath: m_LocalEulerAnglesHint.x
      value: 0
      objectReference: {fileID: 0}
    - target: {fileID: 3957627393269448016, guid: c5e05319ed3683848953d19176a73cd8,
        type: 3}
      propertyPath: m_LocalEulerAnglesHint.y
      value: 0
      objectReference: {fileID: 0}
    - target: {fileID: 3957627393269448016, guid: c5e05319ed3683848953d19176a73cd8,
        type: 3}
      propertyPath: m_LocalEulerAnglesHint.z
      value: 0
      objectReference: {fileID: 0}
    - target: {fileID: 3957627393269448022, guid: c5e05319ed3683848953d19176a73cd8,
        type: 3}
      propertyPath: m_Name
      value: Input Manager
      objectReference: {fileID: 0}
    m_RemovedComponents: []
  m_SourcePrefab: {fileID: 100100000, guid: c5e05319ed3683848953d19176a73cd8, type: 3}
--- !u!1001 &4610789598835953499
PrefabInstance:
  m_ObjectHideFlags: 0
  serializedVersion: 2
  m_Modification:
    m_TransformParent: {fileID: 0}
    m_Modifications:
    - target: {fileID: 4610789600124189469, guid: 1491f2fc7ba5c204389fee36f91db5f3,
        type: 3}
      propertyPath: m_RootOrder
      value: 15
      objectReference: {fileID: 0}
    - target: {fileID: 4610789600124189469, guid: 1491f2fc7ba5c204389fee36f91db5f3,
        type: 3}
      propertyPath: m_LocalPosition.x
      value: 0
      objectReference: {fileID: 0}
    - target: {fileID: 4610789600124189469, guid: 1491f2fc7ba5c204389fee36f91db5f3,
        type: 3}
      propertyPath: m_LocalPosition.y
      value: 0
      objectReference: {fileID: 0}
    - target: {fileID: 4610789600124189469, guid: 1491f2fc7ba5c204389fee36f91db5f3,
        type: 3}
      propertyPath: m_LocalPosition.z
      value: 0
      objectReference: {fileID: 0}
    - target: {fileID: 4610789600124189469, guid: 1491f2fc7ba5c204389fee36f91db5f3,
        type: 3}
      propertyPath: m_LocalRotation.w
      value: 1
      objectReference: {fileID: 0}
    - target: {fileID: 4610789600124189469, guid: 1491f2fc7ba5c204389fee36f91db5f3,
        type: 3}
      propertyPath: m_LocalRotation.x
      value: 0
      objectReference: {fileID: 0}
    - target: {fileID: 4610789600124189469, guid: 1491f2fc7ba5c204389fee36f91db5f3,
        type: 3}
      propertyPath: m_LocalRotation.y
      value: 0
      objectReference: {fileID: 0}
    - target: {fileID: 4610789600124189469, guid: 1491f2fc7ba5c204389fee36f91db5f3,
        type: 3}
      propertyPath: m_LocalRotation.z
      value: 0
      objectReference: {fileID: 0}
    - target: {fileID: 4610789600124189469, guid: 1491f2fc7ba5c204389fee36f91db5f3,
        type: 3}
      propertyPath: m_LocalEulerAnglesHint.x
      value: 0
      objectReference: {fileID: 0}
    - target: {fileID: 4610789600124189469, guid: 1491f2fc7ba5c204389fee36f91db5f3,
        type: 3}
      propertyPath: m_LocalEulerAnglesHint.y
      value: 0
      objectReference: {fileID: 0}
    - target: {fileID: 4610789600124189469, guid: 1491f2fc7ba5c204389fee36f91db5f3,
        type: 3}
      propertyPath: m_LocalEulerAnglesHint.z
      value: 0
      objectReference: {fileID: 0}
    - target: {fileID: 4610789600124189471, guid: 1491f2fc7ba5c204389fee36f91db5f3,
        type: 3}
      propertyPath: m_Name
      value: Score Manager
      objectReference: {fileID: 0}
    m_RemovedComponents: []
  m_SourcePrefab: {fileID: 100100000, guid: 1491f2fc7ba5c204389fee36f91db5f3, type: 3}
--- !u!1001 &7165555536763828652
PrefabInstance:
  m_ObjectHideFlags: 0
  serializedVersion: 2
  m_Modification:
    m_TransformParent: {fileID: 0}
    m_Modifications:
    - target: {fileID: 7165555536658852000, guid: 7d27d9893115c7044816b63d35004f62,
        type: 3}
      propertyPath: m_Name
      value: Particle Manager
      objectReference: {fileID: 0}
    - target: {fileID: 7165555536658852002, guid: 7d27d9893115c7044816b63d35004f62,
        type: 3}
      propertyPath: m_RootOrder
      value: 13
      objectReference: {fileID: 0}
    - target: {fileID: 7165555536658852002, guid: 7d27d9893115c7044816b63d35004f62,
        type: 3}
      propertyPath: m_LocalPosition.x
      value: 0
      objectReference: {fileID: 0}
    - target: {fileID: 7165555536658852002, guid: 7d27d9893115c7044816b63d35004f62,
        type: 3}
      propertyPath: m_LocalPosition.y
      value: 0
      objectReference: {fileID: 0}
    - target: {fileID: 7165555536658852002, guid: 7d27d9893115c7044816b63d35004f62,
        type: 3}
      propertyPath: m_LocalPosition.z
      value: 0
      objectReference: {fileID: 0}
    - target: {fileID: 7165555536658852002, guid: 7d27d9893115c7044816b63d35004f62,
        type: 3}
      propertyPath: m_LocalRotation.w
      value: 1
      objectReference: {fileID: 0}
    - target: {fileID: 7165555536658852002, guid: 7d27d9893115c7044816b63d35004f62,
        type: 3}
      propertyPath: m_LocalRotation.x
      value: -0
      objectReference: {fileID: 0}
    - target: {fileID: 7165555536658852002, guid: 7d27d9893115c7044816b63d35004f62,
        type: 3}
      propertyPath: m_LocalRotation.y
      value: -0
      objectReference: {fileID: 0}
    - target: {fileID: 7165555536658852002, guid: 7d27d9893115c7044816b63d35004f62,
        type: 3}
      propertyPath: m_LocalRotation.z
      value: -0
      objectReference: {fileID: 0}
    - target: {fileID: 7165555536658852002, guid: 7d27d9893115c7044816b63d35004f62,
        type: 3}
      propertyPath: m_LocalEulerAnglesHint.x
      value: 0
      objectReference: {fileID: 0}
    - target: {fileID: 7165555536658852002, guid: 7d27d9893115c7044816b63d35004f62,
        type: 3}
      propertyPath: m_LocalEulerAnglesHint.y
      value: 0
      objectReference: {fileID: 0}
    - target: {fileID: 7165555536658852002, guid: 7d27d9893115c7044816b63d35004f62,
        type: 3}
      propertyPath: m_LocalEulerAnglesHint.z
      value: 0
      objectReference: {fileID: 0}
    m_RemovedComponents: []
  m_SourcePrefab: {fileID: 100100000, guid: 7d27d9893115c7044816b63d35004f62, type: 3}
